Orchestrating Hi-C analysis with Bioconductor - Workflow 1: Distance-dependent interactions across yeast mutants
…
## |===============================================================| 100% 318 MB
## Importing pairs file ../OHCA-data/HiCool/pairs/W303_G1_WT_rep2^mapped-S288c^SWZTO0.pairs in memory. This may take a while...
## |===============================================================| 100% 674 MB
## Importing pairs file ../OHCA-data/HiCool/pairs/W303_G2M_WT_rep1^mapped-S288c^3KHHUE.pairs in memory. This may take a while...
## |===============================================================| 100% 709 MB
## Importing pairs file ../OHCA-data/HiCool/pairs/W303_G2M_WT_rep2^mapped-S288c^UVNG7M.pairs in memory. This may take a while...
## |==============================================================| 100% 1683 MB
## Importing pairs file ../OHCA-data/HiCool/pairs/W303_G2M_wpl1_rep1^mapped-S288c^Q4KX6Z.pairs in memory. This may take a while...
## |==============================================================| 100% 1269 MB
## Importing pairs file ../OHCA-data/HiCool/pairs/W303_G2M_wpl1_rep2^mapped-S288c^3N0L25.pairs in memory. This may take a while...
## |==============================================================| 100% 1529 MB
## Importing pairs file ../OHCA-data/HiCool/pairs/W303_G2M_wpl1-eco1^mapped-S288c^LHMXWE.pairs in memory. This may take a while...
## |==============================================================| 100% 1036 MB
ps[[1]]
## # A tibble: 133 x 6
##   binned_distance          p     norm_p norm_p_unity slope sample
##             <dbl>      <dbl>      <dbl>        <dbl> <dbl> <chr>
## 1               1 0.000154   0.000154         249.   0     WT_G1_rep1
## 2               2 0.0000563  0.0000563         91.2  0.702 WT_G1_rep1
## 3               3 0.0000417  0.0000417         67.5  0.699 WT_G1_rep1
## 4               4 0.00000835 0.00000835        13.5  0.696 WT_G1_rep1
## 5               5 0.00000501 0.00000501         8.10 0.693 WT_G1_rep1
## 6               6 0.00000250 0.00000250         4.05 0.690 WT_G1_rep1
## # ... with 127 more rows
…
